q0_20050204_0
q1_20050429_0
q2_20050722_0
q0_20050401_0
q1_20050624_0
q2_20060106_0
q0_20050527_0
q1_20050722_0
q2_20060526_0
q0_20050819_0
q1_20060428_0
q2_20060915_0
q0_20051111_0
q1_20070302_0
q2_20061013_0
q0_20060106_0
q1_20070427_0
q2_20061110_0
q2_20061110_1
q0_20060203_0
q0_20060203_1
q1_20070622_0
q1_20070622_1
q2_20061208_0
q0_20060526_0
q1_20071109_0
q2_20070817_0
q0_20070302_0
q1_20080229_0
q1_20080229_1
q2_20070914_0
q0_20070817_0
q0_20070817_1
q1_20080425_0
q2_20080201_0
q2_20080201_1
q2_20080201_2
q0_20080201_0
q1_20080523_0
q1_20080523_1
q2_20080229_0
q0_20080523_0
q1_20080718_0
q2_20080523_0
q0_20080620_0
q1_20080815_0
q2_20080620_0
q2_20080620_1
q2_20080620_2
q0_20081107_0
q1_20080912_0
q1_20080912_1
q0_20081205_0
q1_20081010_0
q1_20081010_1
q2_20080718_0
q2_20080718_1
q0_20090130_0
q1_20081107_0
q2_20080815_0
q2_20080815_1
q0_20090227_0
q0_20090227_1
q1_20090130_0
q2_20080912_0
q2_20080912_1
q0_20090327_0
q1_20090227_0
q1_20090227_1
q2_20081010_0
q2_20081010_1
q0_20090522_0
q0_20090522_1
q1_20090327_0
q2_20081107_0
q2_20081107_1
q0_20090619_0
q0_20090619_1
q0_20090619_2
q1_20090424_0
q2_20081205_0
q2_20081205_1
q2_20081205_2
q0_20090911_0
q0_20090911_1
q1_20090619_0
q2_20090102_0
q0_20091009_0
q1_20090911_0
q1_20090911_1
q1_20090911_2
q2_20090130_0
q2_20090130_1
q2_20090130_2
q2_20090130_3
q2_20090130_4
q2_20090130_5
q0_20091106_0
q1_20091009_0
q2_20090227_0
q2_20090227_1
q2_20090227_2
q2_20090227_3
q2_20090227_4
q0_20100101_0
q1_20091106_0
q1_20091106_1
q2_20090327_0
q2_20090327_1
q2_20090327_2
q2_20090327_3
q0_20100129_0
q0_20100129_1
q0_20100129_2
q0_20100129_3
q1_20091204_0
q1_20091204_1
q2_20090424_0
q2_20090424_1
q2_20090424_2
q2_20090424_3
q0_20100326_0
q0_20100326_1
q1_20100101_0
q2_20090522_0
q2_20090522_1
q0_20100423_0
q0_20100423_1
q1_20100129_0
q1_20100129_1
q2_20090619_0
q2_20090619_1
q0_20100521_0
q0_20100521_1
q0_20100521_2
q1_20100326_0
q2_20090717_0
q2_20090717_1
q2_20090717_2
q0_20100618_0
q1_20100423_0
q1_20100423_1
q2_20090814_0
q2_20090814_1
q2_20090814_2
q2_20090814_3
q0_20100813_0
q0_20100813_1
q0_20100813_2
q1_20100521_0
q1_20100521_1
q2_20090911_0
q2_20090911_1
q2_20090911_2
q0_20100910_0
q0_20100910_1
q0_20100910_2
q1_20100716_0
q1_20100716_1
q1_20100716_2
q2_20091009_0
q2_20091009_1
q0_20101008_0
q0_20101008_1
q1_20100813_0
q2_20091106_0
q2_20091106_1
q2_20091106_2
q2_20091106_3
q2_20091106_4
q0_20101105_0
q0_20101105_1
q0_20101105_2
q1_20100910_0
q1_20100910_1
q1_20100910_2
q2_20091204_0
q2_20091204_1
q2_20091204_2
q2_20091204_3
q2_20091204_4
q0_20110128_0
q0_20110128_1
q0_20110128_2
q0_20110128_3
q1_20101105_0
q2_20100101_0
q2_20100101_1
q2_20100101_2
q2_20100101_3
q2_20100101_4
q2_20100101_5
q0_20110225_0
q0_20110225_1
q0_20110225_2
q0_20110225_3
q0_20110225_4
q1_20101203_0
q1_20101203_1
q2_20100129_0
q2_20100129_1
q2_20100129_2
q2_20100129_3
q2_20100129_4
q0_20110325_0
q0_20110325_1
q0_20110325_2
q1_20101231_0
q1_20101231_1
q1_20101231_2
q1_20101231_3
q1_20101231_4
q2_20100226_0
q2_20100226_1
q2_20100226_2
q2_20100226_3
q0_20110422_0
q0_20110422_1
q1_20110128_0
q2_20100326_0
q2_20100326_1
q2_20100326_2
q0_20110520_0
q0_20110520_1
q0_20110520_2
q1_20110225_0
q1_20110325_0
q1_20110325_1
q1_20110325_2
q2_20100423_0
q2_20100423_1
q2_20100423_2
q2_20100423_3
q2_20100423_4
q2_20100423_5
q0_20110617_0
q0_20110617_1
q0_20110617_2
q0_20110617_3
q0_20110617_4
q1_20110422_0
q2_20100521_0
q0_20110812_0
q1_20110520_0
q1_20110520_1
q1_20110520_2
q2_20100618_0
q2_20100618_1
q2_20100618_2
q2_20100618_3
q2_20100618_4
q0_20110909_0
q1_20110617_0
q1_20110617_1
q2_20100716_0
q2_20100716_1
q2_20100716_2
q2_20100716_3
q0_20111007_0
q0_20111007_1
q0_20111007_2
q0_20111007_3
q1_20110715_0
q2_20100813_0
q2_20100813_1
q0_20111104_0
q0_20111104_1
q1_20110812_0
q1_20110812_1
q2_20100910_0
q2_20100910_1
q2_20100910_2
q2_20100910_3
q2_20100910_4
q2_20100910_5
q2_20100910_6
q0_20111202_0
q1_20110909_0
q1_20110909_1
q1_20110909_2
q2_20101008_0
q2_20101008_1
q2_20101008_2
q2_20101008_3
q2_20101008_4
q2_20101008_5
q0_20111230_0
q0_20111230_1
q0_20111230_2
q1_20111007_0
q2_20101105_0
q2_20101105_1
q2_20101105_2
q2_20101105_3
q0_20120127_0
q0_20120127_1
q0_20120127_2
q0_20120127_3
q0_20120127_4
q1_20111202_0
q1_20111202_1
q1_20111202_2
q2_20101203_0
q2_20101203_1
q0_20120323_0
q0_20120323_1
q0_20120323_2
q0_20120323_3
q1_20111230_0
q1_20111230_1
q2_20101231_0
q2_20101231_1
q0_20120420_0
q0_20120420_1
q1_20120127_0
q1_20120127_1
q1_20120127_2
q1_20120127_3
q2_20110128_0
q2_20110128_1
q0_20120518_0
q0_20120518_1
q0_20120518_2
q0_20120518_3
q0_20120518_4
q0_20120518_5
q0_20120518_6
q1_20120224_0
q1_20120224_1
q2_20110225_0
q2_20110225_1
q2_20110225_2
q0_20120615_0
q0_20120615_1
q0_20120615_2
q1_20120323_0
q1_20120323_1
q2_20110325_0
q2_20110325_1
q2_20110325_2
q2_20110325_3
q0_20120713_0
q0_20120713_1
q0_20120713_2
q0_20120713_3
q1_20120420_0
q1_20120420_1
q2_20110422_0
q2_20110422_1
q0_20120810_0
q0_20120810_1
q0_20120810_2
q1_20120518_0
q1_20120518_1
q1_20120518_2
q2_20110520_0
q2_20110520_1
q2_20110520_2
q0_20120907_0
q0_20120907_1
q0_20120907_2
q1_20120615_0
q1_20120615_1
q1_20120615_2
q1_20120615_3
q1_20120615_4
q2_20110617_0
q0_20121005_0
q0_20121005_1
q0_20121005_2
q0_20121005_3
q0_20121005_4
q1_20120713_0
q1_20120713_1
q1_20120713_2
q1_20120713_3
q2_20110715_0
q0_20121102_0
q1_20120810_0
q1_20120810_1
q2_20110812_0
q0_20121130_0
q0_20121130_1
q0_20121130_2
q0_20121130_3
q1_20120907_0
q1_20120907_1
q1_20120907_2
q1_20120907_3
q1_20120907_4
q2_20110909_0
q2_20110909_1
q2_20110909_2
q2_20110909_3
q0_20121228_0
q0_20121228_1
q0_20121228_2
q1_20121005_0
q1_20121005_1
q1_20121005_2
q2_20111007_0
q2_20111007_1
q0_20130125_0
q0_20130125_1
q0_20130125_2
q0_20130125_3
q0_20130125_4
q0_20130125_5
q0_20130125_6
q0_20130125_7
q0_20130125_8
q1_20121130_0
q1_20121130_1
q1_20121130_2
q1_20121130_3
q2_20111104_0
q2_20111104_1
q2_20111104_2
q2_20111104_3
q0_20130222_0
q0_20130222_1
q0_20130222_2
q0_20130222_3
q1_20121228_0
q1_20121228_1
q1_20121228_2
q1_20121228_3
q1_20121228_4
q1_20121228_5
q1_20121228_6
q2_20111230_0
q2_20111230_1
q2_20111230_2
q2_20111230_3
q2_20111230_4
q2_20111230_5
q0_20130322_0
q0_20130322_1
q0_20130322_2
q0_20130322_3
q1_20130125_0
q1_20130125_1
q1_20130125_2
q1_20130125_3
q1_20130125_4
q2_20120127_0
q2_20120127_1
q0_20130419_0
q0_20130419_1
q0_20130419_2
q0_20130419_3
q0_20130419_4
q1_20130222_0
q2_20120224_0
q2_20120224_1
q2_20120224_2
q2_20120224_3
q2_20120224_4
q0_20130517_0
q0_20130517_1
q0_20130517_2
q0_20130517_3
q0_20130517_4
q1_20130322_0
q1_20130322_1
q2_20120323_0
q2_20120323_1
q2_20120323_2
q2_20120323_3
q2_20120323_4
q2_20120323_5
q2_20120323_6
q0_20130614_0
q0_20130614_1
q0_20130614_2
q0_20130614_3
q0_20130614_4
q0_20130614_5
q0_20130614_6
q1_20130419_0
q1_20130419_1
q2_20120420_0
q2_20120420_1
q2_20120420_2
q2_20120420_3
q0_20130712_0
q0_20130712_1
q0_20130712_2
q0_20130712_3
q1_20130517_0
q1_20130517_1
q2_20120518_0
q2_20120518_1
q2_20120518_2
q2_20120518_3
q0_20130809_0
q0_20130809_1
q1_20130614_0
q1_20130614_1
q1_20130614_2
q1_20130614_3
q1_20130614_4
q1_20130614_5
q1_20130614_6
q1_20130614_7
q2_20120615_0
q2_20120615_1
q0_20130906_0
q0_20130906_1
q0_20130906_2
q0_20130906_3
q1_20130712_0
q1_20130712_1
q1_20130712_2
q1_20130712_3
q1_20130712_4
q1_20130712_5
q1_20130712_6
q1_20130712_7
q2_20120713_0
q2_20120713_1
q2_20120713_2
q0_20131004_0
q0_20131004_1
q0_20131004_2
q0_20131004_3
q1_20130809_0
q1_20130809_1
q1_20130809_2
q1_20130809_3
q1_20130809_4
q1_20130809_5
q2_20120810_0
q2_20120810_1
q2_20120810_2
q0_20131101_0
q0_20131101_1
q0_20131101_2
q1_20130906_0
q1_20130906_1
q1_20130906_2
q1_20130906_3
q2_20120907_0
q2_20120907_1
q2_20120907_2
q2_20120907_3
q0_20131129_0
q0_20131129_1
q0_20131129_2
q1_20131004_0
q1_20131004_1
q2_20121005_0
q0_20131227_0
q0_20131227_1
q0_20131227_2
q0_20131227_3
q0_20131227_4
q0_20131227_5
q0_20131227_6
q0_20131227_7
q1_20131101_0
q1_20131101_1
q1_20131101_2
q2_20121102_0
q2_20121102_1
q2_20121102_2
q2_20121102_3
q0_20140124_0
q0_20140124_1
q0_20140124_2
q0_20140124_3
q0_20140124_4
q0_20140124_5
q0_20140124_6
q1_20131129_0
q1_20131129_1
q1_20131129_2
q1_20131129_3
q1_20131129_4
q2_20121228_0
q2_20121228_1
q2_20121228_2
q2_20121228_3
q0_20140221_0
q0_20140221_1
q0_20140221_2
q0_20140221_3
q0_20140221_4
q1_20131227_0
q1_20131227_1
q1_20131227_2
q1_20131227_3
q1_20131227_4
q1_20131227_5
q1_20131227_6
q2_20130125_0
q2_20130125_1
q0_20140321_0
q0_20140321_1
q0_20140321_2
q0_20140321_3
q1_20140124_0
q1_20140124_1
q1_20140124_2
q1_20140124_3
q1_20140124_4
q1_20140124_5
q1_20140124_6
q2_20130222_0
q2_20130222_1
q2_20130222_2
q2_20130222_3
q2_20130222_4
q2_20130222_5
q0_20140418_0
q0_20140418_1
q0_20140418_2
q0_20140418_3
q0_20140418_4
q0_20140418_5
q0_20140418_6
q1_20140221_0
q1_20140221_1
q1_20140221_2
q1_20140221_3
q1_20140221_4
q1_20140221_5
q2_20130322_0
q2_20130322_1
q2_20130322_2
q2_20130322_3
q2_20130322_4
q2_20130322_5
q0_20140516_0
q0_20140516_1
q1_20140321_0
q1_20140321_1
q1_20140321_2
q1_20140321_3
q1_20140321_4
q1_20140321_5
q2_20130419_0
q2_20130419_1
q2_20130419_2
q2_20130419_3
q2_20130419_4
q2_20130419_5
q0_20140613_0
q0_20140613_1
q0_20140613_2
q0_20140613_3
q0_20140613_4
q0_20140613_5
q1_20140418_0
q1_20140418_1
q2_20130517_0
q2_20130517_1
q2_20130517_2
q0_20140711_0
q0_20140711_1
q0_20140711_2
q0_20140711_3
q0_20140711_4
q0_20140711_5
q0_20140711_6
q1_20140516_0
q1_20140516_1
q1_20140516_2
q2_20130614_0
q2_20130614_1
q2_20130614_2
q0_20140808_0
q0_20140808_1
q0_20140808_2
q0_20140808_3
q1_20140613_0
q1_20140613_1
q1_20140613_2
q1_20140613_3
q1_20140613_4
q1_20140613_5
q1_20140613_6
q2_20130712_0
q2_20130712_1
q0_20140905_0
q0_20140905_1
q0_20140905_2
q0_20140905_3
q0_20140905_4
q1_20140711_0
q1_20140711_1
q1_20140711_2
q1_20140711_3
q1_20140711_4
q1_20140711_5
q1_20140711_6
q1_20140711_7
q2_20130809_0
q2_20130809_1
q2_20130809_2
q2_20130809_3
q0_20141003_0
q0_20141003_1
q0_20141003_2
q0_20141003_3
q0_20141003_4
q0_20141003_5
q0_20141003_6
q0_20141003_7
q0_20141003_8
q1_20140808_0
q1_20140808_1
q2_20130906_0
q2_20130906_1
q2_20130906_2
q2_20130906_3
q0_20141031_0
q0_20141031_1
q0_20141031_2
q0_20141031_3
q0_20141031_4
q0_20141031_5
q0_20141031_6
q0_20141031_7
q0_20141031_8
q1_20140905_0
q1_20140905_1
q1_20140905_2
q1_20140905_3
q1_20140905_4
q2_20131004_0
q2_20131004_1
q2_20131004_2
q0_20141128_0
q0_20141128_1
q0_20141128_2
q1_20141003_0
q1_20141003_1
q1_20141003_2
q1_20141003_3
q1_20141003_4
q1_20141003_5
q1_20141003_6
q2_20131101_0
q2_20131101_1
q2_20131101_2
q2_20131101_3
q2_20131101_4
q2_20131101_5
q2_20131101_6
q0_20141226_0
q0_20141226_1
q0_20141226_2
q0_20141226_3
q0_20141226_4
q0_20141226_5
q0_20141226_6
q0_20141226_7
q1_20141031_0
q1_20141031_1
q1_20141031_2
q1_20141031_3
q1_20141031_4
q1_20141031_5
q1_20141031_6
q1_20141031_7
q2_20131129_0
q2_20131129_1
q2_20131129_2
q2_20131129_3
q2_20131129_4
q2_20131129_5
q2_20131129_6
q2_20131129_7
q2_20131129_8
q2_20131129_9
q0_20150123_0
q0_20150123_1
q0_20150123_2
q0_20150123_3
q0_20150123_4
q0_20150123_5
q0_20150123_6
q0_20150123_7
q0_20150123_8
q0_20150123_9
q1_20141128_0
q1_20141128_1
q1_20141128_2
q1_20141128_3
q2_20131227_0
q2_20131227_1
q2_20131227_2
q2_20131227_3
q2_20131227_4
q2_20131227_5
q2_20131227_6
q2_20131227_7
q2_20131227_8
q2_20131227_9
q0_20150220_0
q0_20150220_1
q0_20150220_2
q0_20150220_3
q0_20150220_4
q0_20150220_5
q0_20150220_6
q1_20141226_0
q1_20141226_1
q1_20141226_2
q1_20141226_3
q1_20141226_4
q1_20141226_5
q2_20140124_0
q2_20140124_1
q2_20140124_2
q2_20140124_3
q2_20140124_4
q2_20140124_5
q2_20140124_6
q2_20140124_7
q2_20140124_8
q0_20150320_0
q0_20150320_1
q0_20150320_2
q0_20150320_3
q0_20150320_4
q0_20150320_5
q0_20150320_6
q0_20150320_7
q1_20150123_0
q1_20150123_1
q1_20150123_2
q1_20150123_3
q1_20150123_4
q1_20150123_5
q1_20150123_6
q1_20150123_7
q1_20150123_8
q2_20140221_0
q2_20140221_1
q2_20140221_2
q2_20140221_3
q2_20140221_4
q2_20140221_5
q2_20140221_6
q2_20140221_7
q0_20150417_0
q0_20150417_1
q0_20150417_2
q0_20150417_3
q0_20150417_4
q0_20150417_5
q0_20150417_6
q0_20150417_7
q0_20150417_8
q1_20150220_0
q1_20150220_1
q1_20150220_2
q1_20150220_3
q1_20150220_4
q1_20150220_5
q1_20150220_6
q2_20140321_0
q2_20140321_1
q2_20140321_2
q2_20140321_3
q2_20140321_4
q2_20140321_5
q2_20140321_6
q2_20140321_7
q0_20150515_0
q0_20150515_1
q0_20150515_2
q0_20150515_3
q0_20150515_4
q0_20150515_5
q0_20150515_6
q0_20150515_7
q0_20150515_8
q0_20150515_9
q1_20150320_0
q1_20150320_1
q1_20150320_2
q1_20150320_3
q1_20150320_4
q1_20150320_5
q1_20150320_6
q2_20140418_0
q2_20140418_1
q2_20140418_2
q2_20140418_3
q2_20140418_4
q0_20150612_0
q0_20150612_1
q0_20150612_2
q0_20150612_3
q0_20150612_4
q0_20150612_5
q0_20150612_6
q0_20150612_7
q0_20150612_8
q0_20150612_9
q1_20150417_0
q1_20150417_1
q1_20150417_2
q2_20140516_0
q2_20140516_1
q2_20140516_2
q2_20140516_3
q2_20140516_4
q2_20140516_5
q0_20150710_0
q0_20150710_1
q0_20150710_2
q0_20150710_3
q0_20150710_4
q0_20150710_5
q0_20150710_6
q0_20150710_7
q0_20150710_8
q0_20150710_9
q1_20150515_0
q1_20150515_1
q1_20150515_2
q1_20150515_3
q1_20150515_4
q1_20150515_5
q1_20150515_6
q1_20150515_7
q1_20150515_8
q2_20140613_0
q2_20140613_1
q2_20140613_2
q2_20140613_3
q2_20140613_4
q2_20140613_5
q2_20140613_6
q0_20150807_0
q0_20150807_1
q0_20150807_2
q0_20150807_3
q0_20150807_4
q1_20150612_0
q1_20150612_1
q1_20150612_2
q1_20150612_3
q1_20150612_4
q2_20140711_0
q2_20140711_1
q2_20140711_2
q2_20140711_3
q2_20140711_4
q0_20150904_0
q0_20150904_1
q0_20150904_2
q0_20150904_3
q0_20150904_4
q0_20150904_5
q0_20150904_6
q0_20150904_7
q1_20150710_0
q1_20150710_1
q1_20150710_2
q1_20150710_3
q1_20150710_4
q2_20140808_0
q2_20140808_1
q2_20140808_2
q2_20140808_3
q2_20140808_4
q2_20140808_5
q2_20140808_6
q2_20140808_7
q2_20140808_8
q0_20151002_0
q0_20151002_1
q0_20151002_2
q0_20151002_3
q0_20151002_4
q0_20151002_5
q0_20151002_6
q0_20151002_7
q0_20151002_8
q0_20151002_9
q1_20150807_0
q1_20150807_1
q1_20150807_2
q1_20150807_3
q1_20150807_4
q1_20150807_5
q1_20150807_6
q1_20150807_7
q2_20140905_0
q2_20140905_1
q2_20140905_2
q2_20140905_3
q2_20140905_4
q2_20140905_5
q2_20140905_6
q0_20151030_0
q0_20151030_1
q0_20151030_2
q0_20151030_3
q0_20151030_4
q0_20151030_5
q0_20151030_6
q0_20151030_7
q0_20151030_8
q0_20151030_9
q1_20150904_0
q1_20150904_1
q1_20150904_2
q1_20150904_3
q1_20150904_4
q1_20150904_5
q1_20150904_6
q1_20150904_7
q1_20150904_8
q2_20141003_0
q2_20141003_1
q2_20141003_2
q2_20141003_3
q0_20151127_0
q0_20151127_1
q0_20151127_2
q0_20151127_3
q0_20151127_4
q0_20151127_5
q0_20151127_6
q0_20151127_7
q0_20151127_8
q0_20151127_9
q1_20151002_0
q1_20151002_1
q1_20151002_2
q1_20151002_3
q1_20151002_4
q1_20151002_5
q1_20151002_6
q1_20151002_7
q1_20151002_8
q1_20151002_9
q2_20141031_0
q2_20141031_1
q2_20141031_2
q2_20141031_3
q2_20141031_4
q2_20141031_5
q0_20151225_0
q0_20151225_1
q0_20151225_2
q0_20151225_3
q0_20151225_4
q0_20151225_5
q0_20151225_6
q0_20151225_7
q1_20151030_0
q1_20151030_1
q1_20151030_2
q1_20151030_3
q1_20151030_4
q1_20151030_5
q2_20141128_0
q2_20141128_1
q2_20141128_2
q2_20141128_3
q2_20141128_4
q0_20160122_0
q0_20160122_1
q0_20160122_2
q0_20160122_3
q0_20160122_4
q0_20160122_5
q0_20160122_6
q0_20160122_7
q0_20160122_8
q0_20160122_9
q1_20151127_0
q1_20151127_1
q1_20151127_2
q1_20151127_3
q1_20151127_4
q1_20151127_5
q1_20151127_6
q1_20151127_7
q2_20141226_0
q2_20141226_1
q2_20141226_2
q2_20141226_3
q2_20141226_4
q2_20141226_5
q2_20141226_6
q2_20141226_7
q2_20141226_8
q2_20141226_9
q0_20160219_0
q0_20160219_1
q0_20160219_2
q0_20160219_3
q0_20160219_4
q0_20160219_5
q0_20160219_6
q0_20160219_7
q0_20160219_8
q0_20160219_9
q1_20151225_0
q1_20151225_1
q1_20151225_2
q1_20151225_3
q1_20151225_4
q1_20151225_5
q1_20151225_6
q1_20151225_7
q1_20151225_8
q2_20150123_0
q2_20150123_1
q2_20150123_2
q2_20150123_3
q2_20150123_4
q2_20150123_5
q2_20150123_6
q2_20150123_7
q2_20150123_8
q0_20160318_0
q0_20160318_1
q0_20160318_2
q0_20160318_3
q0_20160318_4
q0_20160318_5
q0_20160318_6
q0_20160318_7
q0_20160318_8
q0_20160318_9
q1_20160122_0
q1_20160122_1
q1_20160122_2
q1_20160122_3
q1_20160122_4
q1_20160122_5
q1_20160122_6
q1_20160122_7
q1_20160122_8
q2_20150220_0
q2_20150220_1
q2_20150220_2
q2_20150220_3
q2_20150220_4
q2_20150220_5
q0_20160415_0
q0_20160415_1
q0_20160415_2
q0_20160415_3
q0_20160415_4
q1_20160219_0
q1_20160219_1
q1_20160219_2
q1_20160219_3
q1_20160219_4
q1_20160219_5
q1_20160219_6
q1_20160219_7
q1_20160219_8
q1_20160219_9
q2_20150320_0
q2_20150320_1
q2_20150320_2
q2_20150320_3
q2_20150320_4
q2_20150320_5
q2_20150320_6
q2_20150320_7
q2_20150320_8
q2_20150320_9
q0_20160513_0
q0_20160513_1
q0_20160513_2
q0_20160513_3
q0_20160513_4
q0_20160513_5
q0_20160513_6
q0_20160513_7
q0_20160513_8
q0_20160513_9
q1_20160318_0
q1_20160318_1
q1_20160318_2
q1_20160318_3
q1_20160318_4
q1_20160318_5
q1_20160318_6
q1_20160318_7
q2_20150417_0
q2_20150417_1
q2_20150417_2
q2_20150417_3
q2_20150417_4
q2_20150417_5
q0_20160610_0
q0_20160610_1
q0_20160610_2
q0_20160610_3
q0_20160610_4
q0_20160610_5
q1_20160415_0
q1_20160415_1
q1_20160415_2
q1_20160415_3
q1_20160415_4
q1_20160415_5
q1_20160415_6
q2_20150515_0
q2_20150515_1
q2_20150515_2
q2_20150515_3
q2_20150515_4
q0_20160708_0
q0_20160708_1
q0_20160708_2
q0_20160708_3
q0_20160708_4
q0_20160708_5
q0_20160708_6
q1_20160513_0
q1_20160513_1
q1_20160513_2
q1_20160513_3
q1_20160513_4
q1_20160513_5
q1_20160513_6
q1_20160513_7
q2_20150612_0
q2_20150612_1
q2_20150612_2
q2_20150612_3
q2_20150612_4
q2_20150612_5
q2_20150612_6
q2_20150612_7
q2_20150612_8
q0_20160805_0
q0_20160805_1
q0_20160805_2
q0_20160805_3
q0_20160805_4
q0_20160805_5
q0_20160805_6
q1_20160610_0
q1_20160610_1
q1_20160610_2
q1_20160610_3
q1_20160610_4
q1_20160610_5
q1_20160610_6
q2_20150710_0
q2_20150710_1
q2_20150710_2
q2_20150710_3
q2_20150710_4
q2_20150710_5
q0_20160902_0
q0_20160902_1
q0_20160902_2
q0_20160902_3
q0_20160902_4
q0_20160902_5
q0_20160902_6
q0_20160902_7
q0_20160902_8
q0_20160902_9
q1_20160708_0
q1_20160708_1
q1_20160708_2
q1_20160708_3
q1_20160708_4
q1_20160708_5
q1_20160708_6
q1_20160708_7
q1_20160708_8
q2_20150807_0
q2_20150807_1
q2_20150807_2
q2_20150807_3
q2_20150807_4
q2_20150807_5
q2_20150807_6
q2_20150807_7
q0_20160930_0
q0_20160930_1
q0_20160930_2
q0_20160930_3
q0_20160930_4
q0_20160930_5
q0_20160930_6
q0_20160930_7
q0_20160930_8
q1_20160805_0
q1_20160805_1
q1_20160805_2
q1_20160805_3
q1_20160805_4
q1_20160805_5
q1_20160805_6
q1_20160805_7
q1_20160805_8
q1_20160805_9
q2_20150904_0
q2_20150904_1
q2_20150904_2
q2_20150904_3
q2_20150904_4
q2_20150904_5
q0_20161028_0
q0_20161028_1
q0_20161028_2
q0_20161028_3
q0_20161028_4
q0_20161028_5
q0_20161028_6
q0_20161028_7
q0_20161028_8
q0_20161028_9
q1_20160902_0
q1_20160902_1
q1_20160902_2
q1_20160902_3
q1_20160902_4
q1_20160902_5
q1_20160902_6
q1_20160902_7
q1_20160902_8
q1_20160902_9
q2_20151002_0
q2_20151002_1
q2_20151002_2
q2_20151002_3
q2_20151002_4
q2_20151002_5
q2_20151002_6
q0_20161125_0
q0_20161125_1
q0_20161125_2
q0_20161125_3
q0_20161125_4
q0_20161125_5
q0_20161125_6
q0_20161125_7
q0_20161125_8
q1_20160930_0
q1_20160930_1
q1_20160930_2
q1_20160930_3
q1_20160930_4
q1_20160930_5
q2_20151030_0
q2_20151030_1
q2_20151030_2
q0_20161223_0
q0_20161223_1
q0_20161223_2
q0_20161223_3
q0_20161223_4
q0_20161223_5
q0_20161223_6
q0_20161223_7
q0_20161223_8
q1_20161028_0
q1_20161028_1
q1_20161028_2
q1_20161028_3
q1_20161028_4
q1_20161028_5
q1_20161028_6
q1_20161028_7
q1_20161028_8
q1_20161028_9
q2_20151127_0
q2_20151127_1
q2_20151127_2
q2_20151127_3
q2_20151127_4
q0_20170120_0
q0_20170120_1
q0_20170120_2
q0_20170120_3
q0_20170120_4
q0_20170120_5
q0_20170120_6
q0_20170120_7
q0_20170120_8
q0_20170120_9
q1_20161125_0
q1_20161125_1
q1_20161125_2
q1_20161125_3
q1_20161125_4
q1_20161125_5
q1_20161125_6
q1_20161125_7
q1_20161125_8
q1_20161125_9
q2_20151225_0
q2_20151225_1
q2_20151225_2
q2_20151225_3
q2_20151225_4
q2_20151225_5
q0_20170217_0
q0_20170217_1
q0_20170217_2
q0_20170217_3
q0_20170217_4
q0_20170217_5
q0_20170217_6
q0_20170217_7
q0_20170217_8
q1_20161223_0
q1_20161223_1
q1_20161223_2
q1_20161223_3
q1_20161223_4
q1_20161223_5
q1_20161223_6
q1_20161223_7
q2_20160122_0
q2_20160122_1
q2_20160122_2
q2_20160122_3
q2_20160122_4
q0_20170317_0
q0_20170317_1
q0_20170317_2
q0_20170317_3
q0_20170317_4
q0_20170317_5
q0_20170317_6
q0_20170317_7
q0_20170317_8
q0_20170317_9
q1_20170120_0
q1_20170120_1
q1_20170120_2
q1_20170120_3
q1_20170120_4
q1_20170120_5
q1_20170120_6
q1_20170120_7
q1_20170120_8
q1_20170120_9
q2_20160219_0
q2_20160219_1
q2_20160219_2
q2_20160219_3
q2_20160219_4
q2_20160219_5
q0_20170414_0
q0_20170414_1
q0_20170414_2
q0_20170414_3
q0_20170414_4
q0_20170414_5
q0_20170414_6
q0_20170414_7
q0_20170414_8
q0_20170414_9
q1_20170217_0
q1_20170217_1
q1_20170217_2
q1_20170217_3
q1_20170217_4
q1_20170217_5
q1_20170217_6
q1_20170217_7
q1_20170217_8
q1_20170217_9
q2_20160318_0
q2_20160318_1
q2_20160318_2
q2_20160318_3
q2_20160318_4
q2_20160318_5
q2_20160318_6
q0_20170512_0
q0_20170512_1
q0_20170512_2
q0_20170512_3
q0_20170512_4
q0_20170512_5
q0_20170512_6
q0_20170512_7
q0_20170512_8
q1_20170317_0
q1_20170317_1
q1_20170317_2
q1_20170317_3
q1_20170317_4
q1_20170317_5
q1_20170317_6
q1_20170317_7
q2_20160415_0
q2_20160415_1
q2_20160415_2
q2_20160415_3
q2_20160415_4
q0_20170609_0
q0_20170609_1
q0_20170609_2
q0_20170609_3
q0_20170609_4
q0_20170609_5
q0_20170609_6
q0_20170609_7
q0_20170609_8
q0_20170609_9
q1_20170414_0
q1_20170414_1
q1_20170414_2
q1_20170414_3
q1_20170414_4
q1_20170414_5
q1_20170414_6
q1_20170414_7
q1_20170414_8
q1_20170414_9
q2_20160513_0
q0_20170707_0
q0_20170707_1
q0_20170707_2
q0_20170707_3
q0_20170707_4
q0_20170707_5
q0_20170707_6
q0_20170707_7
q0_20170707_8
q0_20170707_9
q1_20170512_0
q1_20170512_1
q1_20170512_2
q1_20170512_3
q1_20170512_4
q1_20170512_5
q1_20170512_6
q1_20170512_7
q2_20160610_0
q2_20160610_1
q2_20160610_2
q0_20170804_0
q0_20170804_1
q0_20170804_2
q1_20170609_0
q1_20170609_1
q1_20170609_2
q1_20170609_3
q1_20170609_4
q1_20170609_5
q1_20170609_6
q1_20170609_7
q1_20170609_8
q1_20170609_9
q2_20160708_0
q2_20160708_1
q2_20160708_2
q0_20170901_0
q0_20170901_1
q0_20170901_2
q0_20170901_3
q0_20170901_4
q0_20170901_5
q0_20170901_6
q0_20170901_7
q0_20170901_8
q0_20170901_9
q1_20170707_0
q1_20170707_1
q1_20170707_2
q1_20170707_3
q1_20170707_4
q1_20170707_5
q1_20170707_6
q1_20170707_7
q1_20170707_8
q1_20170707_9
q2_20160805_0
q2_20160805_1
q2_20160805_2
q2_20160805_3
q2_20160805_4
q2_20160805_5
q2_20160805_6
q2_20160805_7
q2_20160805_8
q0_20170929_0
q0_20170929_1
q0_20170929_2
q0_20170929_3
q0_20170929_4
q0_20170929_5
q0_20170929_6
q0_20170929_7
q0_20170929_8
q0_20170929_9
q1_20170804_0
q1_20170804_1
q1_20170804_2
q1_20170804_3
q1_20170804_4
q1_20170804_5
q1_20170804_6
q1_20170804_7
q1_20170804_8
q1_20170804_9
q2_20160902_0
q2_20160902_1
q2_20160902_2
q2_20160902_3
q2_20160902_4
q2_20160902_5
q0_20171027_0
q0_20171027_1
q0_20171027_2
q0_20171027_3
q0_20171027_4
q0_20171027_5
q0_20171027_6
q0_20171027_7
q0_20171027_8
q0_20171027_9
q1_20170901_0
q1_20170901_1
q1_20170901_2
q1_20170901_3
q1_20170901_4
q1_20170901_5
q1_20170901_6
q1_20170901_7
q1_20170901_8
q1_20170901_9
q2_20160930_0
q2_20160930_1
q2_20160930_2
q2_20160930_3
q2_20160930_4
q2_20160930_5
q2_20160930_6
q0_20171124_0
q0_20171124_1
q0_20171124_2
q0_20171124_3
q0_20171124_4
q0_20171124_5
q0_20171124_6
q0_20171124_7
q0_20171124_8
q1_20170929_0
q1_20170929_1
q1_20170929_2
q1_20170929_3
q1_20170929_4
q1_20170929_5
q1_20170929_6
q1_20170929_7
q1_20170929_8
q1_20170929_9
q2_20161028_0
q2_20161028_1
q2_20161028_2
q2_20161028_3
q2_20161028_4
q0_20171222_0
q0_20171222_1
q0_20171222_2
q0_20171222_3
q0_20171222_4
q0_20171222_5
q0_20171222_6
q0_20171222_7
q0_20171222_8
q0_20171222_9
q1_20171027_0
q1_20171027_1
q1_20171027_2
q1_20171027_3
q1_20171027_4
q1_20171027_5
q1_20171027_6
q1_20171027_7
q1_20171027_8
q1_20171027_9
q2_20161125_0
q2_20161125_1
q2_20161125_2
q2_20161125_3
q2_20161125_4
q2_20161125_5
q2_20161125_6
q0_20180119_0
q0_20180119_1
q0_20180119_2
q0_20180119_3
q0_20180119_4
q0_20180119_5
q0_20180119_6
q0_20180119_7
q0_20180119_8
q0_20180119_9
q1_20171124_0
q1_20171124_1
q1_20171124_2
q1_20171124_3
q1_20171124_4
q1_20171124_5
q1_20171124_6
q1_20171124_7
q1_20171124_8
q1_20171124_9
q2_20161223_0
q2_20161223_1
q2_20161223_2
q2_20161223_3
q2_20161223_4
q2_20161223_5
q0_20180216_0
q0_20180216_1
q0_20180216_2
q0_20180216_3
q0_20180216_4
q0_20180216_5
q0_20180216_6
q0_20180216_7
q0_20180216_8
q1_20171222_0
q1_20171222_1
q1_20171222_2
q1_20171222_3
q1_20171222_4
q1_20171222_5
q1_20171222_6
q1_20171222_7
q1_20171222_8
q1_20171222_9
q2_20170120_0
q2_20170120_1
q2_20170120_2
q2_20170120_3
q2_20170120_4
q2_20170120_5
q2_20170120_6
q2_20170120_7
q0_20180316_0
q0_20180316_1
q0_20180316_2
q0_20180316_3
q0_20180316_4
q0_20180316_5
q0_20180316_6
q0_20180316_7
q0_20180316_8
q0_20180316_9
q1_20180119_0
q1_20180119_1
q1_20180119_2
q1_20180119_3
q1_20180119_4
q1_20180119_5
q1_20180119_6
q1_20180119_7
q1_20180119_8
q1_20180119_9
q2_20170217_0
q2_20170217_1
q2_20170217_2
q2_20170217_3
q2_20170217_4
q2_20170217_5
q2_20170217_6
q2_20170217_7
q0_20180413_0
q0_20180413_1
q0_20180413_2
q0_20180413_3
q0_20180413_4
q0_20180413_5
q0_20180413_6
q0_20180413_7
q0_20180413_8
q0_20180413_9
q1_20180216_0
q1_20180216_1
q1_20180216_2
q1_20180216_3
q1_20180216_4
q1_20180216_5
q1_20180216_6
q1_20180216_7
q1_20180216_8
q1_20180216_9
q2_20170317_0
q2_20170317_1
q2_20170317_2
q2_20170317_3
q2_20170317_4
q2_20170317_5
q0_20180511_0
q0_20180511_1
q0_20180511_2
q0_20180511_3
q0_20180511_4
q0_20180511_5
q0_20180511_6
q0_20180511_7
q0_20180511_8
q0_20180511_9
q1_20180316_0
q1_20180316_1
q1_20180316_2
q1_20180316_3
q1_20180316_4
q1_20180316_5
q1_20180316_6
q1_20180316_7
q1_20180316_8
q1_20180316_9
q2_20170414_0
q2_20170414_1
q2_20170414_2
q0_20180608_0
q0_20180608_1
q0_20180608_2
q0_20180608_3
q0_20180608_4
q0_20180608_5
q0_20180608_6
q0_20180608_7
q0_20180608_8
q0_20180608_9
q1_20180413_0
q1_20180413_1
q1_20180413_2
q1_20180413_3
q1_20180413_4
q1_20180413_5
q1_20180413_6
q1_20180413_7
q1_20180413_8
q1_20180413_9
q2_20170512_0
q2_20170512_1
q2_20170512_2
q2_20170512_3
q2_20170512_4
q2_20170512_5
q2_20170512_6
q2_20170512_7
q2_20170512_8
q2_20170512_9
q0_20180706_0
q0_20180706_1
q0_20180706_2
q0_20180706_3
q0_20180706_4
q0_20180706_5
q0_20180706_6
q0_20180706_7
q0_20180706_8
q0_20180706_9
q1_20180511_0
q1_20180511_1
q1_20180511_2
q1_20180511_3
q1_20180511_4
q1_20180511_5
q1_20180511_6
q1_20180511_7
q1_20180511_8
q1_20180511_9
q2_20170609_0
q2_20170609_1
q2_20170609_2
q2_20170609_3
q0_20180803_0
q0_20180803_1
q0_20180803_2
q0_20180803_3
q0_20180803_4
q0_20180803_5
q0_20180803_6
q0_20180803_7
q0_20180803_8
q0_20180803_9
q1_20180608_0
q1_20180608_1
q1_20180608_2
q1_20180608_3
q1_20180608_4
q1_20180608_5
q1_20180608_6
q1_20180608_7
q1_20180608_8
q1_20180608_9
q2_20170707_0
q2_20170707_1
q2_20170707_2
q2_20170707_3
q2_20170707_4
q2_20170707_5
q2_20170707_6
q2_20170707_7
q2_20170707_8
q2_20170707_9
q0_20180831_0
q0_20180831_1
q0_20180831_2
q0_20180831_3
q0_20180831_4
q0_20180831_5
q0_20180831_6
q0_20180831_7
q0_20180831_8
q0_20180831_9
q1_20180706_0
q1_20180706_1
q1_20180706_2
q1_20180706_3
q1_20180706_4
q1_20180706_5
q1_20180706_6
q1_20180706_7
q1_20180706_8
q1_20180706_9
q2_20170804_0
q2_20170804_1
q2_20170804_2
q2_20170804_3
q2_20170804_4
q2_20170804_5
q2_20170804_6
q2_20170804_7
q2_20170804_8
q2_20170804_9
q0_20180928_0
q0_20180928_1
q0_20180928_2
q0_20180928_3
q0_20180928_4
q0_20180928_5
q0_20180928_6
q0_20180928_7
q0_20180928_8
q0_20180928_9
q1_20180803_0
q1_20180803_1
q1_20180803_2
q1_20180803_3
q1_20180803_4
q1_20180803_5
q1_20180803_6
q1_20180803_7
q1_20180803_8
q1_20180803_9
q2_20170901_0
q2_20170901_1
q0_20181026_0
q0_20181026_1
q0_20181026_2
q0_20181026_3
q0_20181026_4
q0_20181026_5
q0_20181026_6
q0_20181026_7
q0_20181026_8
q0_20181026_9
q1_20180831_0
q1_20180831_1
q1_20180831_2
q1_20180831_3
q1_20180831_4
q1_20180831_5
q1_20180831_6
q1_20180831_7
q1_20180831_8
q1_20180831_9
q2_20170929_0
q2_20170929_1
q2_20170929_2
q2_20170929_3
q2_20170929_4
q0_20181123_0
q0_20181123_1
q0_20181123_2
q0_20181123_3
q0_20181123_4
q0_20181123_5
q0_20181123_6
q0_20181123_7
q0_20181123_8
q0_20181123_9
q1_20180928_0
q1_20180928_1
q1_20180928_2
q1_20180928_3
q1_20180928_4
q1_20180928_5
q1_20180928_6
q1_20180928_7
q1_20180928_8
q1_20180928_9
q2_20171027_0
q2_20171027_1
q2_20171027_2
q2_20171027_3
q2_20171027_4
q2_20171027_5
q2_20171027_6
q2_20171027_7
q0_20181221_0
q0_20181221_1
q0_20181221_2
q0_20181221_3
q0_20181221_4
q0_20181221_5
q0_20181221_6
q0_20181221_7
q0_20181221_8
q0_20181221_9
q1_20181026_0
q1_20181026_1
q1_20181026_2
q1_20181026_3
q1_20181026_4
q1_20181026_5
q1_20181026_6
q1_20181026_7
q1_20181026_8
q1_20181026_9
q2_20171124_0
q2_20171124_1
q2_20171124_2
q2_20171124_3
q2_20171124_4
q0_20190118_0
q0_20190118_1
q0_20190118_2
q0_20190118_3
q0_20190118_4
q0_20190118_5
q0_20190118_6
q0_20190118_7
q0_20190118_8
q0_20190118_9
q1_20181123_0
q1_20181123_1
q1_20181123_2
q1_20181123_3
q1_20181123_4
q1_20181123_5
q1_20181123_6
q1_20181123_7
q1_20181123_8
q1_20181123_9
q2_20171222_0
q2_20171222_1
q2_20171222_2
q2_20171222_3
q2_20171222_4
q2_20171222_5
q2_20171222_6
q2_20171222_7
q2_20171222_8
q0_20190215_0
q0_20190215_1
q0_20190215_2
q0_20190215_3
q0_20190215_4
q0_20190215_5
q0_20190215_6
q0_20190215_7
q0_20190215_8
q0_20190215_9
q1_20181221_0
q1_20181221_1
q1_20181221_2
q1_20181221_3
q1_20181221_4
q1_20181221_5
q1_20181221_6
q1_20181221_7
q1_20181221_8
q1_20181221_9
q2_20180119_0
q2_20180119_1
q2_20180119_2
q2_20180119_3
q2_20180119_4
q2_20180119_5
q2_20180119_6
q2_20180119_7
q2_20180119_8
q2_20180119_9
q0_20190315_0
q0_20190315_1
q0_20190315_2
q0_20190315_3
q0_20190315_4
q0_20190315_5
q0_20190315_6
q0_20190315_7
q0_20190315_8
q0_20190315_9
q1_20190118_0
q1_20190118_1
q1_20190118_2
q1_20190118_3
q1_20190118_4
q1_20190118_5
q1_20190118_6
q1_20190118_7
q1_20190118_8
q1_20190118_9
q2_20180216_0
q2_20180216_1
q2_20180216_2
q2_20180216_3
q2_20180216_4
q2_20180216_5
q2_20180216_6
q0_20190412_0
q0_20190412_1
q0_20190412_2
q0_20190412_3
q0_20190412_4
q0_20190412_5
q0_20190412_6
q0_20190412_7
q0_20190412_8
q0_20190412_9
q1_20190215_0
q1_20190215_1
q1_20190215_2
q1_20190215_3
q1_20190215_4
q1_20190215_5
q1_20190215_6
q1_20190215_7
q1_20190215_8
q1_20190215_9
q2_20180316_0
q2_20180316_1
q2_20180316_2
q2_20180316_3
q2_20180316_4
q2_20180316_5
q2_20180316_6
q2_20180316_7
q2_20180316_8
q2_20180316_9
q0_20190510_0
q0_20190510_1
q0_20190510_2
q0_20190510_3
q0_20190510_4
q0_20190510_5
q0_20190510_6
q0_20190510_7
q0_20190510_8
q0_20190510_9
q1_20190315_0
q1_20190315_1
q1_20190315_2
q1_20190315_3
q1_20190315_4
q1_20190315_5
q1_20190315_6
q1_20190315_7
q1_20190315_8
q1_20190315_9
q2_20180413_0
q2_20180413_1
q2_20180413_2
q2_20180413_3
q2_20180413_4
q2_20180413_5
q2_20180413_6
q2_20180413_7
q2_20180413_8
q2_20180413_9
q0_20190607_0
q0_20190607_1
q0_20190607_2
q0_20190607_3
q0_20190607_4
q0_20190607_5
q0_20190607_6
q0_20190607_7
q0_20190607_8
q0_20190607_9
q1_20190412_0
q1_20190412_1
q1_20190412_2
q1_20190412_3
q1_20190412_4
q1_20190412_5
q1_20190412_6
q1_20190412_7
q1_20190412_8
q1_20190412_9
q2_20180511_0
q2_20180511_1
q2_20180511_2
q2_20180511_3
q2_20180511_4
q2_20180511_5
q2_20180511_6
q2_20180511_7
q2_20180511_8
q0_20190705_0
q0_20190705_1
q0_20190705_2
q0_20190705_3
q0_20190705_4
q0_20190705_5
q0_20190705_6
q0_20190705_7
q0_20190705_8
q0_20190705_9
q1_20190510_0
q1_20190510_1
q1_20190510_2
q1_20190510_3
q1_20190510_4
q1_20190510_5
q1_20190510_6
q1_20190510_7
q1_20190510_8
q1_20190510_9
q2_20180608_0
q2_20180608_1
q2_20180608_2
q2_20180608_3
q2_20180608_4
q2_20180608_5
q2_20180608_6
q2_20180608_7
q2_20180608_8
q2_20180608_9
q0_20190802_0
q0_20190802_1
q0_20190802_2
q0_20190802_3
q0_20190802_4
q0_20190802_5
q0_20190802_6
q0_20190802_7
q0_20190802_8
q0_20190802_9
q1_20190607_0
q1_20190607_1
q1_20190607_2
q1_20190607_3
q1_20190607_4
q1_20190607_5
q1_20190607_6
q1_20190607_7
q1_20190607_8
q1_20190607_9
q2_20180706_0
q2_20180706_1
q2_20180706_2
q2_20180706_3
q2_20180706_4
q2_20180706_5
q2_20180706_6
q2_20180706_7
q2_20180706_8
q2_20180706_9
q0_20190830_0
q0_20190830_1
q0_20190830_2
q0_20190830_3
q0_20190830_4
q0_20190830_5
q0_20190830_6
q0_20190830_7
q0_20190830_8
q0_20190830_9
q1_20190705_0
q1_20190705_1
q1_20190705_2
q1_20190705_3
q1_20190705_4
q1_20190705_5
q1_20190705_6
q1_20190705_7
q1_20190705_8
q1_20190705_9
q2_20180803_0
q2_20180803_1
q2_20180803_2
q2_20180803_3
q2_20180803_4
q2_20180803_5
q2_20180803_6
q2_20180803_7
q2_20180803_8
q0_20190927_0
q0_20190927_1
q0_20190927_2
q0_20190927_3
q0_20190927_4
q0_20190927_5
q0_20190927_6
q0_20190927_7
q0_20190927_8
q0_20190927_9
q1_20190802_0
q1_20190802_1
q1_20190802_2
q1_20190802_3
q1_20190802_4
q1_20190802_5
q1_20190802_6
q1_20190802_7
q1_20190802_8
q1_20190802_9
q2_20180831_0
q2_20180831_1
q2_20180831_2
q2_20180831_3
q2_20180831_4
q2_20180831_5
q2_20180831_6
q2_20180831_7
q2_20180831_8
q2_20180831_9
q0_20191025_0
q0_20191025_1
q0_20191025_2
q0_20191025_3
q0_20191025_4
q0_20191025_5
q0_20191025_6
q0_20191025_7
q0_20191025_8
q0_20191025_9
q1_20190830_0
q1_20190830_1
q1_20190830_2
q1_20190830_3
q1_20190830_4
q1_20190830_5
q1_20190830_6
q1_20190830_7
q1_20190830_8
q1_20190830_9
q2_20180928_0
q2_20180928_1
q2_20180928_2
q2_20180928_3
q2_20180928_4
q2_20180928_5
q2_20180928_6
q0_20191122_0
q0_20191122_1
q0_20191122_2
q0_20191122_3
q0_20191122_4
q0_20191122_5
q0_20191122_6
q0_20191122_7
q0_20191122_8
q0_20191122_9
q1_20190927_0
q1_20190927_1
q1_20190927_2
q1_20190927_3
q1_20190927_4
q1_20190927_5
q1_20190927_6
q1_20190927_7
q1_20190927_8
q1_20190927_9
q2_20181026_0
q2_20181026_1
q2_20181026_2
q2_20181026_3
q2_20181026_4
q2_20181026_5
q2_20181026_6
q2_20181026_7
q2_20181026_8
q2_20181026_9
q0_20191220_0
q0_20191220_1
q0_20191220_2
q0_20191220_3
q0_20191220_4
q0_20191220_5
q0_20191220_6
q0_20191220_7
q0_20191220_8
q0_20191220_9
q1_20191025_0
q1_20191025_1
q1_20191025_2
q1_20191025_3
q1_20191025_4
q1_20191025_5
q1_20191025_6
q1_20191025_7
q1_20191025_8
q1_20191025_9
q2_20181123_0
q2_20181123_1
q2_20181123_2
q2_20181123_3
q2_20181123_4
q2_20181123_5
q2_20181123_6
q2_20181123_7
q2_20181123_8
q0_20200117_0
q0_20200117_1
q0_20200117_2
q0_20200117_3
q0_20200117_4
q0_20200117_5
q0_20200117_6
q0_20200117_7
q0_20200117_8
q0_20200117_9
q1_20191122_0
q1_20191122_1
q1_20191122_2
q1_20191122_3
q1_20191122_4
q1_20191122_5
q1_20191122_6
q1_20191122_7
q1_20191122_8
q1_20191122_9
q2_20181221_0
q2_20181221_1
q2_20181221_2
q2_20181221_3
q2_20181221_4
q2_20181221_5
q2_20181221_6
q2_20181221_7
q2_20181221_8
q2_20181221_9
q0_20200214_0
q0_20200214_1
q0_20200214_2
q0_20200214_3
q0_20200214_4
q0_20200214_5
q0_20200214_6
q0_20200214_7
q0_20200214_8
q0_20200214_9
q1_20191220_0
q1_20191220_1
q1_20191220_2
q1_20191220_3
q1_20191220_4
q1_20191220_5
q1_20191220_6
q1_20191220_7
q1_20191220_8
q1_20191220_9
q2_20190118_0
q2_20190118_1
q2_20190118_2
q2_20190118_3
q2_20190118_4
q2_20190118_5
q2_20190118_6
q2_20190118_7
q2_20190118_8
q2_20190118_9
q0_20200313_0
q0_20200313_1
q0_20200313_2
q0_20200313_3
q0_20200313_4
q0_20200313_5
q0_20200313_6
q0_20200313_7
q0_20200313_8
q0_20200313_9
q1_20200117_0
q1_20200117_1
q1_20200117_2
q1_20200117_3
q1_20200117_4
q1_20200117_5
q1_20200117_6
q1_20200117_7
q1_20200117_8
q1_20200117_9
q2_20190215_0
q2_20190215_1
q2_20190215_2
q2_20190215_3
q2_20190215_4
q2_20190215_5
q2_20190215_6
q2_20190215_7
q2_20190215_8
q2_20190215_9
q0_20200410_0
q0_20200410_1
q0_20200410_2
q0_20200410_3
q0_20200410_4
q0_20200410_5
q0_20200410_6
q0_20200410_7
q0_20200410_8
q0_20200410_9
q1_20200214_0
q1_20200214_1
q1_20200214_2
q1_20200214_3
q1_20200214_4
q1_20200214_5
q1_20200214_6
q1_20200214_7
q1_20200214_8
q1_20200214_9
q2_20190315_0
q2_20190315_1
q2_20190315_2
q2_20190315_3
q2_20190315_4
q2_20190315_5
q1_20200313_0
q1_20200313_1
q1_20200313_2
q1_20200313_3
q1_20200313_4
q1_20200313_5
q1_20200313_6
q1_20200313_7
q1_20200313_8
q1_20200313_9
q2_20190412_0
q2_20190412_1
q2_20190412_2
q2_20190412_3
q2_20190412_4
q2_20190412_5
q2_20190412_6
q2_20190412_7
q2_20190412_8
q2_20190412_9
q1_20200410_0
q1_20200410_1
q1_20200410_2
q1_20200410_3
q1_20200410_4
q1_20200410_5
q1_20200410_6
q1_20200410_7
q1_20200410_8
q1_20200410_9
q2_20190510_0
q2_20190510_1
q2_20190510_2
q2_20190510_3
q2_20190510_4
q2_20190510_5
q2_20190510_6
q2_20190510_7
q2_20190510_8
q2_20190510_9
q2_20190607_0
q2_20190607_1
q2_20190607_2
q2_20190607_3
q2_20190607_4
q2_20190607_5
q2_20190607_6
q2_20190607_7
q2_20190607_8
q2_20190607_9
q2_20190705_0
q2_20190705_1
q2_20190705_2
q2_20190705_3
q2_20190705_4
q2_20190705_5
q2_20190705_6
q2_20190705_7
q2_20190705_8
q2_20190705_9
q2_20190802_0
q2_20190802_1
q2_20190802_2
q2_20190802_3
q2_20190802_4
q2_20190802_5
q2_20190802_6
q2_20190802_7
q2_20190802_8
q2_20190802_9
q2_20190830_0
q2_20190830_1
q2_20190830_2
q2_20190830_3
q2_20190830_4
q2_20190830_5
q2_20190830_6
q2_20190830_7
q2_20190830_8
q2_20190830_9
q2_20190927_0
q2_20190927_1
q2_20190927_2
q2_20190927_3
q2_20190927_4
q2_20190927_5
q2_20190927_6
q2_20190927_7
q2_20190927_8
q2_20190927_9
q2_20191025_0
q2_20191025_1
q2_20191025_2
q2_20191025_3
q2_20191025_4
q2_20191025_5
q2_20191025_6
q2_20191025_7
q2_20191025_8
q2_20191025_9
q2_20191122_0
q2_20191122_1
q2_20191122_2
q2_20191122_3
q2_20191122_4
q2_20191122_5
q2_20191122_6
q2_20191122_7
q2_20191122_8
q2_20191122_9
q2_20191220_0
q2_20191220_1
q2_20191220_2
q2_20191220_3
q2_20191220_4
q2_20191220_5
q2_20191220_6
q2_20191220_7
q2_20191220_8
q2_20191220_9
q2_20200117_0
q2_20200117_1
q2_20200117_2
q2_20200117_3
q2_20200117_4
q2_20200117_5
q2_20200117_6
q2_20200117_7
q2_20200117_8
q2_20200117_9
q2_20200214_0
q2_20200214_1
q2_20200214_2
q2_20200214_3
q2_20200214_4
q2_20200214_5
q2_20200214_6
q2_20200214_7
q2_20200214_8
q2_20200214_9
q2_20200313_0
q2_20200313_1
q2_20200313_2
q2_20200313_3
q2_20200313_4
q2_20200313_5
q2_20200313_6
q2_20200313_7
q2_20200313_8
q2_20200313_9
q2_20200410_0
q2_20200410_1
q2_20200410_2
q2_20200410_3
q2_20200410_4
q2_20200410_5
q2_20200410_6
q2_20200410_7
q2_20200410_8
q2_20200410_9
